Single Position Comparisons
…
Andy Beck

2023-07-19

Idea 2: ranks

df_wide %>%
  group_by(pos) %>%
  mutate(AFR = rank(abs(AFR)),
         AMR = rank(abs(AMR)),
         EAS = rank(abs(EAS)),
         EUR = rank(abs(EUR)),
         SAS = rank(abs(SAS)))

# A tibble: 80 × 7
# Groups:   pos [20]
   nuc     pos   AFR   AMR   EAS   EUR   SAS
   <chr> <dbl> <dbl> <dbl> <dbl> <dbl> <dbl>
 1 A       -10     4     4     4     4     4
 2 C       -10     1     1     1     1     2
 3 G       -10     3     3     3     3     3
 4 T       -10     2     2     2     2     1
 5 A        -9     4     4     4     4     4
 6 C        -9     1     1     1     1     1
 7 G        -9     2     2     3     2     3
 8 T        -9     3     3     2     3     2
 9 A        -8     4     4     4     4     4
10 C        -8     3     3     3     3     3
# ℹ 70 more rows
…
